<define-tag pagetitle>DSA-4348-1 openssl</define-tag>
<define-tag report_date>2018-11-30</define-tag>
<define-tag secrefs>CVE-2018-0732 CVE-2018-0734 CVE-2018-0735 CVE-2018-0737 CVE-2018-5407</define-tag>
<define-tag packages>openssl</define-tag>
<define-tag isvulnerable>yes</define-tag>
<define-tag fixed>yes</define-tag>
<define-tag fixed-section>no</define-tag>

#use wml::debian::security



</dl>
