#use wml::debian::translation-check translation="6d8c6daab2cd402ac506318e80de30107f6870fa" maintainer="Jean-Pierre Giraud"
 Nombre actuel de développeurs  = 1062
 Q (racine carrée(nb de développeurs)) / 2 ) = 16.2941707368003
 K min(5, Q )           = 5
 Quorum  (3 x Q )       = 48.8825122104010
