<define-tag pagetitle>DLA-2951-1 flac</define-tag>
<define-tag report_date>2022-03-17</define-tag>
<define-tag secrefs>CVE-2021-0561 Bug#1006339</define-tag>
<define-tag packages>flac</define-tag>
<define-tag isvulnerable>yes</define-tag>
<define-tag fixed>yes</define-tag>
<define-tag fixed-section>no</define-tag>

#use wml::debian::security

