<define-tag pagetitle>DSA-4985-1 wordpress</define-tag>
<define-tag report_date>2021-10-14</define-tag>
<define-tag secrefs>CVE-2021-39200 CVE-2021-39201 Bug#994059 Bug#994060</define-tag>
<define-tag packages>wordpress</define-tag>
<define-tag isvulnerable>yes</define-tag>
<define-tag fixed>yes</define-tag>
<define-tag fixed-section>no</define-tag>

#use wml::debian::security



</dl>
