<define-tag pagetitle>DSA-4932-1 tor</define-tag>
<define-tag report_date>2021-6-18</define-tag>
<define-tag secrefs>CVE-2021-34548 CVE-2021-34549 CVE-2021-34550 Bug#990000</define-tag>
<define-tag packages>tor</define-tag>
<define-tag isvulnerable>yes</define-tag>
<define-tag fixed>yes</define-tag>
<define-tag fixed-section>no</define-tag>

#use wml::debian::security



</dl>
