<define-tag pagetitle>DSA-4764-1 inspircd</define-tag>
<define-tag report_date>2020-9-18</define-tag>
<define-tag secrefs>CVE-2019-20917 CVE-2020-25269 Bug#960650</define-tag>
<define-tag packages>inspircd</define-tag>
<define-tag isvulnerable>yes</define-tag>
<define-tag fixed>yes</define-tag>
<define-tag fixed-section>no</define-tag>

#use wml::debian::security



</dl>
