<define-tag pagetitle>DLA-2759-1 gnutls28</define-tag>
<define-tag report_date>2021-09-18</define-tag>
<define-tag secrefs>Bug#961889</define-tag>
<define-tag packages>gnutls28</define-tag>
<define-tag isvulnerable>yes</define-tag>
<define-tag fixed>yes</define-tag>
<define-tag fixed-section>no</define-tag>

#use wml::debian::security

