<define-tag pagetitle>DLA-2862-1 python-gnupg</define-tag>
<define-tag report_date>2021-12-29</define-tag>
<define-tag secrefs>CVE-2018-12020 CVE-2019-6690</define-tag>
<define-tag packages>python-gnupg</define-tag>
<define-tag isvulnerable>yes</define-tag>
<define-tag fixed>yes</define-tag>
<define-tag fixed-section>no</define-tag>

#use wml::debian::security

