<define-tag pagetitle>DLA-2545-1 open-build-service</define-tag>
<define-tag report_date>2021-02-03</define-tag>
<define-tag secrefs>CVE-2020-8020 CVE-2020-8021</define-tag>
<define-tag packages>open-build-service</define-tag>
<define-tag isvulnerable>yes</define-tag>
<define-tag fixed>yes</define-tag>
<define-tag fixed-section>no</define-tag>

#use wml::debian::security

