<define-tag pagetitle>DLA-1151-1 wordpress</define-tag>
<define-tag report_date>2017-10-31</define-tag>
<define-tag secrefs>CVE-2016-9263  CVE-2017-14718 CVE-2017-14719 CVE-2017-14720 CVE-2017-14721 CVE-2017-14722 CVE-2017-14723 CVE-2017-14725 CVE-2017-14990 Bug#876274 Bug#877629</define-tag>
<define-tag packages>wordpress</define-tag>
<define-tag isvulnerable>yes</define-tag>
<define-tag fixed>yes</define-tag>
<define-tag fixed-section>no</define-tag>

#use wml::debian::security

