<define-tag pagetitle>DLA-961-1 mosquitto</define-tag>
<define-tag report_date>2017-5-30</define-tag>
<define-tag secrefs>CVE-2017-7650</define-tag>
<define-tag packages>mosquitto</define-tag>
<define-tag isvulnerable>yes</define-tag>
<define-tag fixed>yes</define-tag>
<define-tag fixed-section>no</define-tag>

#use wml::debian::security

