<define-tag pagetitle>DLA-2386-1 libdbi-perl</define-tag>
<define-tag report_date>2020-09-28</define-tag>
<define-tag secrefs>CVE-2019-20919 CVE-2020-14392 CVE-2020-14393</define-tag>
<define-tag packages>libdbi-perl</define-tag>
<define-tag isvulnerable>yes</define-tag>
<define-tag fixed>yes</define-tag>
<define-tag fixed-section>no</define-tag>

#use wml::debian::security

