<define-tag pagetitle>DLA-2248-1 intel-microcode</define-tag>
<define-tag report_date>2020-06-13</define-tag>
<define-tag secrefs>CVE-2020-0543 CVE-2020-0548 CVE-2020-0549</define-tag>
<define-tag packages>intel-microcode</define-tag>
<define-tag isvulnerable>yes</define-tag>
<define-tag fixed>yes</define-tag>
<define-tag fixed-section>no</define-tag>

#use wml::debian::security

