<define-tag pagetitle>DLA-2257-1 pngquant</define-tag>
<define-tag report_date>2020-6-28</define-tag>
<define-tag secrefs>CVE-2016-5735</define-tag>
<define-tag packages>pngquant</define-tag>
<define-tag isvulnerable>yes</define-tag>
<define-tag fixed>yes</define-tag>
<define-tag fixed-section>no</define-tag>

#use wml::debian::security

