<define-tag pagetitle>DLA-2333-1 imagemagick</define-tag>
<define-tag report_date>2020-8-19</define-tag>
<define-tag secrefs>CVE-2017-12805 CVE-2017-17681 CVE-2017-18252 CVE-2018-7443 CVE-2018-8804 CVE-2018-8960 CVE-2018-9133 CVE-2018-10177 CVE-2018-14551 CVE-2018-18024 CVE-2018-20467 CVE-2019-10131 CVE-2019-11472 CVE-2019-11597 CVE-2019-12974 CVE-2019-12977 CVE-2019-12978 CVE-2019-12979 CVE-2019-13295 CVE-2019-13297 CVE-2019-11470 CVE-2019-13454 CVE-2019-14981 CVE-2019-19949 Bug#885941 Bug#891291 Bug#894848 Bug#896018 Bug#904713 Bug#917326 Bug#928207 Bug#931196</define-tag>
<define-tag packages>imagemagick</define-tag>
<define-tag isvulnerable>yes</define-tag>
<define-tag fixed>yes</define-tag>
<define-tag fixed-section>no</define-tag>

#use wml::debian::security

