<define-tag pagetitle>DSA-4520-1 trafficserver</define-tag>
<define-tag report_date>2019-9-09</define-tag>
<define-tag secrefs>CVE-2019-9512 CVE-2019-9514 CVE-2019-9515 CVE-2019-9518</define-tag>
<define-tag packages>trafficserver</define-tag>
<define-tag isvulnerable>yes</define-tag>
<define-tag fixed>yes</define-tag>
<define-tag fixed-section>no</define-tag>

#use wml::debian::security



</dl>
