<define-tag pagetitle>DLA-1920-1 golang-go.crypto</define-tag>
<define-tag report_date>2019-09-13</define-tag>
<define-tag secrefs>CVE-2019-11841</define-tag>
<define-tag packages>golang-go.crypto</define-tag>
<define-tag isvulnerable>yes</define-tag>
<define-tag fixed>yes</define-tag>
<define-tag fixed-section>no</define-tag>

#use wml::debian::security

