<define-tag pagetitle>DLA-678-1 qemu</define-tag>
<define-tag report_date>2016-10-25</define-tag>
<define-tag secrefs>CVE-2016-8576 CVE-2016-8577 CVE-2016-8578 CVE-2016-8669</define-tag>
<define-tag packages>qemu</define-tag>
<define-tag isvulnerable>yes</define-tag>
<define-tag fixed>yes</define-tag>
<define-tag fixed-section>no</define-tag>

#use wml::debian::security

