<define-tag pagetitle>DLA-497-1 wireshark</define-tag>
<define-tag report_date>2016-5-31</define-tag>
<define-tag secrefs>CVE-2012-6052 CVE-2012-6053 CVE-2012-6054 CVE-2012-6055 CVE-2012-6056 CVE-2012-6057 CVE-2012-6058 CVE-2012-6059 CVE-2012-6060 CVE-2012-6061 CVE-2012-6062 CVE-2013-1572 CVE-2013-1573 CVE-2013-1574 CVE-2013-1575 CVE-2013-1576 CVE-2013-1577 CVE-2013-1578 CVE-2013-1579 CVE-2013-1580 CVE-2013-1581 CVE-2013-2476 CVE-2013-2479 CVE-2013-2482 CVE-2013-2485 CVE-2013-2486 CVE-2013-2487 CVE-2013-4079 CVE-2013-4080 CVE-2013-4927 CVE-2013-4929 CVE-2013-4931 CVE-2013-5719 CVE-2013-5721 CVE-2013-6339 CVE-2013-7112 CVE-2015-6243 CVE-2015-6246 CVE-2015-6248 CVE-2016-4006 CVE-2016-4079 CVE-2016-4080 CVE-2016-4081 CVE-2016-4082 CVE-2016-4085</define-tag>
<define-tag packages>wireshark</define-tag>
<define-tag isvulnerable>yes</define-tag>
<define-tag fixed>yes</define-tag>
<define-tag fixed-section>no</define-tag>

#use wml::debian::security

